Chapter 2 Cluster analysis of potato cultivars | Nutrient Diagnosis Of Potato
…
data.frame(nbr_cultivars = n_distinct(highYielders_df$Cultivar, na.rm = T), 
           nbr_trials = n_distinct(highYielders_df$NoEssai, na.rm = T))

##   nbr_cultivars nbr_trials
## 1            45        149

A table with cultivars, maturity classes and median clr values (i.e., Centroids).

highYielders_clr <- highYielders_df %>%
  group_by(Cultivar, Maturity5) %>%
  select(Cultivar, Maturity5, starts_with("clr")) %>%
  summarise_all(list(median))
highYielders_clr

## # A tibble: 45 x 8
## # Groups:   Cultivar [45]
##    Cultivar    Maturity5        clr_N clr_P clr_K clr_Mg clr_Ca clr_Fv
##    <fct>       <fct>            <dbl> <dbl> <dbl>  <dbl>  <dbl>  <dbl>
##  1 AC Belmont  early            0.698 -2.00 0.662  -1.62 -1.12    3.46
##  2 AC Chaleur  early            0.688 -1.98 0.352  -1.54 -1.02    3.50
##  3 Amandine    mid-season       0.526 -2.30 0.525  -1.59 -0.680   3.51
##  4 Ambra       mid-season       0.713 -1.98 0.275  -1.39 -1.08    3.46
##  5 Andover     early mid-season 0.812 -2.17 0.749  -2.28 -0.808   3.61
##  6 Aquilon     mid-season       0.783 -1.86 0.387  -1.83 -0.901   3.48
##  7 Argos       late             0.767 -1.77 0.570  -1.70 -1.28    3.43
##  8 Atlantic    mid-season       0.784 -1.87 0.155  -1.50 -1.09    3.56
##  9 Bijou Rouge early            0.942 -1.93 0.563  -1.93 -1.12    3.61
## 10 Carolina    early            0.598 -2.19 0.131  -1.34 -0.837   3.63
## # ... with 35 more rows
…
