Chapter 3 Predicting tuber yield category | Assessment of the nutritional imbalance status of potato crop
…
## [1] 2537

I consider as True Negatives (TN) specimens for this study, observations of the training data set having a high yield (HY) and correctly predicted with the random forest model. Then, I compute clr centroids for cultivars using True Negatives original (not scaled) clr values. These centroids could be used as clr norms for cultivars.

TNs = train_df[train_df$yieldClass == 'HY' & pred_yield == 'HY', ]
TNmedianNorms <- TNs %>%
  group_by(Cultivar) %>%
  select(clrNo) %>%
  summarise_all(list(median))

## Adding missing grouping variables: `Cultivar`

TNmedianNorms

## # A tibble: 47 x 7
##    Cultivar     clrN  clrP  clrK  clrMg clrCa clrFv
##    <chr>       <dbl> <dbl> <dbl>  <dbl> <dbl> <dbl>
##  1 AC Belmont  0.702 -2.01 0.660 -1.11  -1.64  3.48
##  2 AC Chaleur  0.688 -2.00 0.356 -1.04  -1.53  3.49
##  3 Amandine    0.519 -2.29 0.557 -0.696 -1.62  3.53
##  4 Ambra       0.716 -1.95 0.254 -1.11  -1.40  3.49
##  5 Andover     0.872 -2.13 0.734 -0.808 -2.03  3.57
##  6 Aquilon     0.782 -1.88 0.427 -0.871 -1.83  3.47
##  7 Argos       0.791 -1.76 0.579 -1.31  -1.70  3.43
##  8 Atlantic    0.788 -1.78 0.134 -1.10  -1.49  3.55
##  9 Bijou Rouge 0.968 -1.90 0.516 -1.12  -2.15  3.61
## 10 Carolina    0.594 -2.18 0.133 -0.824 -1.35  3.63
## # ... with 37 more rows
