Chapter 2 Cluster analysis of potato cultivars | Nutrient Diagnosis Of Potato
…
data.frame(numb_cultivars = n_distinct(highYielders_df$Cultivar, na.rm = TRUE),
           numb_trials = n_distinct(highYielders_df$NoEssai, na.rm = TRUE))

##   numb_cultivars numb_trials
## 1             47         151

I create a table with cultivars, maturity classes and compute median clr values i.e., clr centroids.

highYielders_clr <- highYielders_df %>%
  group_by(Cultivar, Maturity5) %>%
  select(Cultivar, Maturity5, starts_with("clr")) %>%
  summarise_all(list(median))
highYielders_clr

## # A tibble: 47 x 8
## # Groups:   Cultivar [47]
##    Cultivar    Maturity5        clr_N clr_P clr_K clr_Mg clr_Ca clr_Fv
##    <chr>       <chr>            <dbl> <dbl> <dbl>  <dbl>  <dbl>  <dbl>
##  1 AC Belmont  early            0.701 -2.02 0.664  -1.64 -1.11    3.47
##  2 AC Chaleur  early            0.696 -1.97 0.349  -1.54 -1.04    3.51
##  3 Amandine    mid-season       0.519 -2.29 0.557  -1.62 -0.696   3.53
##  4 Ambra       mid-season       0.713 -1.98 0.275  -1.39 -1.08    3.46
##  5 Andover     early mid-season 0.872 -2.17 0.738  -2.28 -0.808   3.57
##  6 Aquilon     mid-season       0.783 -1.86 0.387  -1.83 -0.901   3.48
##  7 Argos       late             0.767 -1.77 0.570  -1.70 -1.28    3.43
##  8 Atlantic    mid-season       0.784 -1.87 0.155  -1.50 -1.09    3.56
##  9 Bijou Rouge early            0.942 -1.93 0.563  -1.93 -1.12    3.61
## 10 Carolina    early            0.598 -2.19 0.131  -1.34 -0.837   3.63
## # ... with 37 more rows
…
interval <- tibble(Estimate = intervals(lmm)$fixed[-1, 2],
                    LL = intervals(lmm)$fixed[-1, 1], 
                    UL = intervals(lmm)$fixed[-1, 3]) 

interval$variable <- rep('NA', nrow(interval))
interval$variable <- rownames(intervals(lmm)$fixed)[-1]
interval$ionomic_group <- rep(paste("group", 1:nlevels(dfml$group_i)), length(clrNo)-1)
interval$used_clr <- rep(used_clr, each = nlevels(dfml$group_i))

interval$pvalue <- round(pv[,"p-value"], 4)
interval$is_significant = ifelse(interval$pvalue <= 0.05, 'P < 0.05', 'P > 0.05')
interval

## # A tibble: 30 x 8
##    Estimate      LL    UL variable ionomic_group used_clr pvalue
##       <dbl>   <dbl> <dbl> <chr>    <chr>         <chr>     <dbl>
##  1     3.94   3.01   4.86 clrN:gr~ group 1       clrN     0     
##  2     4.51   3.00   6.02 clrN:gr~ group 2       clrN     0     
##  3     1.21 -10.6   13.0  clrN:gr~ group 3       clrN     0.840 
##  4     8.93   7.51  10.3  clrN:gr~ group 4       clrN     0     
##  5     6.68   1.97  11.4  clrN:gr~ group 5       clrN     0.0054
##  6     1.69  -0.712  4.09 clrN:gr~ group 6       clrN     0.168 
##  7     2.26   1.23   3.30 clrP:gr~ group 1       clrP     0     
##  8     4.47   2.19   6.74 clrP:gr~ group 2       clrP     0.0001
##  9     1.20 -15.5   17.9  clrP:gr~ group 3       clrP     0.888 
## 10     8.55   6.78  10.3  clrP:gr~ group 4       clrP     0     
## # ... with 20 more rows, and 1 more variable: is_significant <chr>
…
